<?xml version="1.0" encoding="UTF-8" standalone="no"?>
<!-- Created with Inkscape (http://www.inkscape.org/) by Marsupilami -->

<svg
   xmlns:dc="http://purl.org/dc/elements/1.1/"
   xmlns:cc="http://creativecommons.org/ns#"
   xmlns:rdf="http://www.w3.org/1999/02/22-rdf-syntax-ns#"
   xmlns:svg="http://www.w3.org/2000/svg"
   xmlns="http://www.w3.org/2000/svg"
   xmlns:sodipodi="http://sodipodi.sourceforge.net/DTD/sodipodi-0.dtd"
   xmlns:inkscape="http://www.inkscape.org/namespaces/inkscape"
   version="1.0"
   width="962.784"
   height="901.67102"
   viewBox="-4.83933 -4.83933 645.99295 604.61342"
   id="svg6596"
   inkscape:version="0.91 r13725"
   sodipodi:docname="Pertamina_Logo Stacked.svg">
  <metadata
     id="metadata18">
    <rdf:RDF>
      <cc:Work
         rdf:about="">
        <dc:format>image/svg+xml</dc:format>
        <dc:type
           rdf:resource="http://purl.org/dc/dcmitype/StillImage" />
        <dc:title></dc:title>
      </cc:Work>
    </rdf:RDF>
  </metadata>
  <sodipodi:namedview
     pagecolor="#ffffff"
     bordercolor="#666666"
     borderopacity="1"
     objecttolerance="10"
     gridtolerance="10"
     guidetolerance="10"
     inkscape:pageopacity="0"
     inkscape:pageshadow="2"
     inkscape:window-width="1366"
     inkscape:window-height="705"
     id="namedview16"
     showgrid="false"
     inkscape:zoom="256"
     inkscape:cx="962.31405"
     inkscape:cy="901.12603"
     inkscape:window-x="-8"
     inkscape:window-y="-8"
     inkscape:window-maximized="1"
     inkscape:current-layer="svg6596" />
  <defs
     id="defs6598" />
  <g
     id="g4335"
     transform="translate(0,433.5798)">
    <g
       id="flowRoot4146"
       style="font-style:normal;font-variant:normal;font-weight:bold;font-stretch:normal;font-size:66.49641418px;line-height:125%;font-family:'Tw Cen MT';-inkscape-font-specification:'Tw Cen MT, Bold';text-align:start;letter-spacing:0px;word-spacing:0px;writing-mode:lr-tb;text-anchor:start;fill:#000000;fill-opacity:1;stroke:none;stroke-width:1px;stroke-linecap:butt;stroke-linejoin:miter;stroke-opacity:1"
       transform="matrix(1.7653073,0,0,1.7653073,-189.29239,32.168242)">
      <path
         style="fill:#000000;fill-opacity:1"
         sodipodi:nodetypes="cscscscccccccscsscc"
         inkscape:connector-curvature="0"
         id="path4216"
         d="m 104.48779,31.606137 17.55207,0 c 4.88866,0 8.83199,1.195421 11.83001,3.586262 2.998,2.368287 5.13559,5.49217 5.13559,9.371649 0,2.548727 -0.0528,7.443635 -1.53833,9.744256 -1.45848,2.278066 -3.67323,3.980977 -6.64424,5.108732 -2.971,1.127756 -6.19978,1.714189 -8.3065,1.7593 l -7.55794,0.135329 0,14.716762 -10.47066,0 z m 10.3086,9.475389 0,11.503217 6.40791,-1.64e-4 c 1.91764,-4.9e-5 3.55169,-0.575155 4.90216,-1.725466 1.37747,-1.150311 2.0662,-2.514896 2.0662,-4.093753 0,-1.804409 -0.76977,-3.202825 -2.30929,-4.19525 -1.53952,-0.992425 -3.1388,-1.489322 -5.97476,-1.489322 z" />
      <path
         sodipodi:nodetypes="ccccccccccccc"
         style="fill:#000000;fill-opacity:1"
         inkscape:connector-curvature="0"
         id="path4218"
         d="m 145.01591,31.606031 28.45205,0 0,8.796514 -18.04433,0 0,8.0704 17.50867,0 0,9.556462 -17.50867,0 0,8.108278 18.04433,0 0,9.890742 -28.45205,0 z" />
      <path
         sodipodi:nodetypes="cssacccccccccccsccc"
         style="fill:#000000;fill-opacity:1"
         inkscape:connector-curvature="0"
         id="path4220"
         d="m 183.24622,31.606031 18.23238,0 c 4.77381,0 7.76316,1.178837 10.53073,3.518606 2.7817,2.351716 3.73981,6.073319 4.18011,9.507001 0.30833,2.404522 0.13158,4.722181 -1.15274,7.180694 -1.2601,2.458513 -5.06093,5.138272 -8.5927,5.96176 l 13.91492,18.254335 -12.61434,0 -13.0485,-17.679402 -1.16316,-1.1e-5 0,17.679413 -10.2867,0 z m 10.3594,8.648634 0,11.472085 3.71211,0 c 5.35539,0 8.03308,-2.674299 8.03308,-6.756784 0,-4.556665 -4.8839,-4.692089 -7.88769,-4.715301 z" />
      <path
         sodipodi:nodetypes="ccccccccc"
         style="fill:#000000;fill-opacity:1"
         inkscape:connector-curvature="0"
         id="path4222"
         d="m 220.81072,31.606031 34.1038,0 0,9.619228 -11.62542,0 0,34.803168 -10.9302,0 0,-34.803168 -11.54818,0 z" />
      <path
         sodipodi:nodetypes="ccccccccccccc"
         style="fill:#000000;fill-opacity:1"
         inkscape:connector-curvature="0"
         id="path4224"
         d="m 267.73791,31.606031 10.89919,0 15.01895,44.422396 -11.03042,0 -2.8655,-8.008764 -13.47709,0 -3.38453,8.008764 -10.29582,0 z m 5.31703,14.289719 -4.89874,13.746489 9.0803,0 z" />
      <path
         sodipodi:nodetypes="cccccccccccccc"
         style="fill:#000000;fill-opacity:1"
         inkscape:connector-curvature="0"
         id="path4226"
         d="m 304.42389,31.606031 10.18936,0 8.33092,24.661905 9.06458,-24.661905 10.11462,0 5.84744,44.422396 -10.02408,0 -2.96389,-25.180368 -10.02364,25.179475 -4.12739,0 -9.43958,-25.639421 -4.331,25.639421 -9.27916,8.93e-4 z" />
      <path
         style="fill:#000000;fill-opacity:1"
         inkscape:connector-curvature="0"
         id="path4228"
         d="m 354.78552,31.606031 10.5489,0 0,44.422396 -10.5489,0 0,-44.422396 z" />
      <path
         sodipodi:nodetypes="ccccccccccc"
         style="fill:#000000;fill-opacity:1"
         inkscape:connector-curvature="0"
         id="path4230"
         d="m 404.94195,31.849434 9.62096,0 0,44.178993 -10.65857,0 -18.57268,-26.313108 0,26.313108 -10.40515,0 0,-44.178993 9.93938,0 20.07606,27.341242 z" />
      <path
         d="m 436.20777,31.606031 10.89919,0 15.01895,44.422396 -11.03042,0 -2.8655,-8.008764 -13.47709,0 -3.38453,8.008764 -10.29582,0 z m 5.31703,14.289719 -4.89874,13.746489 9.0803,0 z"
         id="path4162"
         inkscape:connector-curvature="0"
         style="fill:#000000;fill-opacity:1"
         sodipodi:nodetypes="ccccccccccccc" />
    </g>
    <g
       transform="matrix(0.99998671,0,0,0.99997855,889.28018,219.83332)"
       id="g4271">
      <path
         sodipodi:nodetypes="ccscscsc"
         inkscape:connector-curvature="0"
         style="fill:#175e9c;fill-opacity:1"
         id="path4265"
         d="m -877.5669,-179.73088 c 0,0 129.1795,-205.48188 150.22912,-239.54621 21.04692,-34.07007 39.17911,-37.26994 97.32713,-37.26994 l 128.16389,0 c -7.55617,6.3402 -20.47901,19.57661 -30.1471,35.13293 l -130.35377,209.74331 c -13.03365,23.43632 -40.5952,31.93991 -73.66899,31.93991 z" />
      <path
         sodipodi:nodetypes="sccsccs"
         inkscape:connector-curvature="0"
         id="path4267"
         d="m -367.27016,-456.54683 c -58.14811,0 -76.38204,3.19876 -98.53432,37.26883 -22.15479,34.06443 -81.66563,125.85787 -81.66563,125.85787 l 149.03542,0 c 26.02025,0 51.34673,-11.42617 62.25148,-30.31375 l 88.05329,-132.81295 z"
         style="fill:#a9be33;fill-opacity:1" />
      <path
         style="fill:#e43134;fill-opacity:1"
         d="m -428.3303,-658.45414 c 58.14811,0 76.38204,3.19876 98.53432,37.26883 22.15479,34.06443 81.66563,125.85787 81.66563,125.85787 l -149.03542,0 c -26.02025,0 -51.34673,-11.42617 -62.25148,-30.31375 l -88.05329,-132.81295 z"
         id="path4308"
         inkscape:connector-curvature="0"
         sodipodi:nodetypes="sccsccs" />
    </g>
  </g>
</svg>
<!-- version: 20090314, original size: 677.388 161.311, border: 3% -->

